…
```r
library(lattice)
```
Here we do the sum

```r
data_1<-group_by(activity,date)
#group data according to the date
sum_1<-summarize(data_1,sum = sum(steps))
sum_1
```

```
## # A tibble: 61 x 2
##    date         sum
##    <fct>      <int>
##  1 2012-10-01    NA
##  2 2012-10-02   126
##  3 2012-10-03 11352
##  4 2012-10-04 12116
##  5 2012-10-05 13294
##  6 2012-10-06 15420
##  7 2012-10-07 11015
##  8 2012-10-08    NA
##  9 2012-10-09 12811
## 10 2012-10-10  9900
## # … with 51 more rows
```
…
```
## [1] 10765
```

## What is the average daily activity pattern?

```r
data_2<-group_by(activity,interval)
mean_2<-summarize(data_2,mean = sum(steps,na.rm = TRUE)/nrow(sum_1))
mean_2
```

```
## # A tibble: 288 x 2
##    interval   mean
##       <int>  <dbl>
##  1        0 1.49  
##  2        5 0.295 
##  3       10 0.115 
##  4       15 0.131 
##  5       20 0.0656
##  6       25 1.82  
##  7       30 0.459 
##  8       35 0.754 
##  9       40 0     
## 10       45 1.28  
## # … with 278 more rows
```
…
